{
    "YOU_ARE_LOGGED_IN_AS": "আপনি লগ ইন করেছে হিসাবে",
    "LOGOUT": "লগআউট",
    "DASHBOARD": "ড্যাশবোর্ড",
    "DIAGNOSTICS_REPORT": "রোগ নির্ণয় সংক্রান্ত রিপোর্ট",
    "MANAGEMENT": "ম্যানেজমেন্ট",
    "CUSTOMER": "উপভোক্তা",
    "ADD_CUSTOMER": "উপভোক্তা যুক্ত করুন",
    "LIST": "তালিকা",
    "CUSTOMER_DETAILS": "গ্রাহকের বিশদ",
    "HUBS": "হাবগুলি",
    "ADD_HUBS": "হাব যোগ করুন",
    "USERS": "ব্যবহারকারি",
    "ADD_USER": "ব্যবহারকারী যুক্ত করুন",
    "TEST_MAPPING": "টেস্ট ম্যাপিং",
    "MISCELLANEOUS": "নানারকম",
    "DIAGNOSTICS_AND_STATISTICS": "ডায়াগনস্টিকস লগ",
    "PATIENT_ID_CARDS": "পেশেন্টের আইডি কার্ড",
    "TEST_AND_PANELS_SETUP": "টেস্ট এবং দন্ডযুক্ত সেটআপ",
    "NOTIFICATION_SETUP": "বিজ্ঞপ্তিকরণ ঠিক করা হয়েছে",
    "BEST_VIEWED_WITH_GOOGLE_CHROME_BROWSER": "গুগল ক্রোম ব্রাউজার সঙ্গে সবচেয়ে ভালো দর্শন",
    "PLEASE_WAIT": "অনুগ্রহ করে অপেক্ষা করুন",
    "MY_FILTER": "আমার ফিল্টার",
    "DOWNLOAD": "Download",
    "DIAGNOSTIC_TEST_IS_NOT_DONE_ON": "কোন রোগ সংক্রান্ত পরীক্ষা করা হয়ে ওঠেনি",
    "CENTER": "কেন্দ্র",
    "PATIENT_REGISTRATION_IS_NOT_DONE_ON": "পেশেন্টের নথিকরণ করা হয়নি",
    "VISITS": "ভিজিট",
    "ENROLLED_FEMALE_PATIENT": "মহিলা রোগীদের নাম তালিকাভুক্ত করুন",
    "FEMALE": "মহিলা",
    "DIAGNOSTICS_DONE": "রোগ শনাক্তকরণ হয়েছে",
    "DIAGNOSTICS": "রোগ নির্ণয় সংক্রান্ত",
    "ENROLLED_USERS": "তালিকাভুক্ত ব্যবহারকারী",
    "ENROLLED_PATIENTS": "রোগির তালিকাভুক্তি",
    "PATIENTS": "রোগীরা",
    "ENROLLED_HUBS": "তালিকাভুক্ত হাবগুলি",
    "ERROR": "প্রমাদ",
    "FAILED_TO_GENERATE": "বেরিয়ে যেতে ব্যর্থ",
    "PATIENT_REGISTRATION_IS_NOT_DONE_FOR_LAST_THREE_MONTHS": "গত তিনমাস রোগীর নাম নথিভুক্ত করা হয়নি",
    "ENROLLED_CUSTOMER": "গ্রাহকের তালিকাভুক্তি",
    "CUSTOMERS": "গ্রাহকগণ",
    "FILTER": "ছাঁকনি",
    "PATIENT_REGISTRATION_IS_NOT_DONE_BASED_ON_FILTERED_DATE": "পরিশ্রূত তারিখের উপর ভিত্তি করে রোগী নথিবদ্ধকরণ হয়নি",
    "TYPE": "টাইপ",
    "DIABETIC": "বহুমূত্ররোগগ্রস্ত",
    "TEST_RESULT": "টেস্টের ফলাফল",
    "NORMAL": "স্বাভাবিক",
    "TEST_RESULT_BETWEEN": "টেস্ট রেজাল্টের মধ্যে",
    "PRE_DIABETIC": "বহুমূত্ররোগগ্রস্ততার পূর্বে",
    "HIGH_RANGE": "উচ্চ মাত্রা",
    "NORMAL_RANGE": "স্বাভাবিক মাত্রা",
    "LOW_RANGE": "নিম্ন মাত্রা",
    "BETWEEN": "দুজনের মধ্যে",
    "AND": "এবং",
    "CUSTOMER_LIST": "গ্রাহক তালিকা",
    "LIST_OF_CUSTOMER": "গ্রাহকদের তালিকা",
    "SEARCH": "সার্চ",
    "SORT_AND_CLICK_ON": "বাছাই করুন এবং ক্লিক করুন",
    "TO_EDIT_IT": "এটি সম্পাদন করতে",
    "SEARCH_TEXT": "মূল পাঠ সার্চ করুন",
    "MIN_3_CHARACTER": "ন্যূনতম তিনটি চরিত্র",
    "NEW_CUSTOMER": "নতুন গ্রাহক",
    "S.No": "S.No",
    "NAME": "নাম",
    "EMAIL": "ইমেল",
    "CUSTOMER_TYPE": "গ্রাহকের প্রকৃতি",
    "ACTIONS": "সম্পন্ন ক্রিয়া",
    "TIN/TAN/GST_NO": "টিআইএন/টিএএন/জিএসটি নং",
    "CUSTOMER_DETAILS_UPDATED_SUCCCESSFULLY": "উপভোক্তার বিশদ সফলভাবে আপডেট করা হয়েছে",
    "ADD": "যুক্ত করা",
    "UPDATE": "আপডেট",
    "ENTER_CUSTOMER_DETAILS_AND_SELECT_APPROPRIATE_TYPE": "উপভোক্তার বিশদ এন্টার করুন এবং সঠিকপ্রকৃতি নির্বাচন করুন",
    "CLICK_ON": "ক্লিক করুন",
    "BUTTON_TO_ADD_CENTER_WHICH_WILL_BE_ADDED_UNDER_THIS_CUSTOMER_FOR_CONSUMABLE": "কেন্দ্রে যুক্ত করার বোতাম যা যুক্ত হবে এই গ্রাহকের অধীনে কনজিউমেবল করতে",
    "HUB_AND_USER_MANAGEMENT": "হাব এবং ব্যবহারকারীর ম্যানেজমেন্ট",
    "CUSTOMER_NAME": "গ্রাহকের নাম",
    "MANAGER": "ম্যানেজার",
    "INDIVIDUAL": "ব্যক্তিগত",
    "HOME": "হোম",
    "LABORATORY": "গবেষণাগার",
    "SOCIAL_ENTREPRENEUR": "সামাজিক উদ্যোক্তা",
    "HOSPITAL": "হাসপাতাল",
    "PHC": "পিএইচসি",
    "HEALTHWORKER": "স্বাস্থ্যকর্মী",
    "CUSTOMER_CODE": "গ্রাহক কোড",
    "CUSTOMER_CODE_ALREADY_EXISTS": "গ্রাহক কোড ইতিমধ্যেই বিদ্যমান",
    "COUNTRY": "দেশ",
    "DEPARTMENT": "দপ্তর",
    "STATE": "স্টেট",
    "CITY": "শহর",
    "MOBILE": "মোবাইল",
    "ADDRESS": "ঠিকানা",
    "TELEPHONE": "দূরভাষ",
    "POSTAL_CODE": "পোস্টাল কোড",
    "CENTERS": "কেন্দ্র",
    "PAN_NO": "প্যান নাম্বার",
    "SUCCESS": "সাফল্য",
    "WARNING": "সতর্ক করা",
    "SUBMIT": "প্রেরণ",
    "CANCEL": "বাতিল",
    "ENTER_CENTER_INFORMATION": "কেন্দ্রীয় তথ্য এন্টার করা",
    "DESCRIPTION": "বর্ণনা",
    "DISTRICT": "জেলা",
    "CLOSE": "বন্ধ",
    "CORRECT_THE_FIELD_ERROR_THEN_TRY_TO_SUMBIT": "ফিল্ডের ভ্রান্তি ঠিক করুন এবং সাবমিট করতে চেষ্টা করুন",
    "DETAILS": "বিশদ",
    "ENTER_VALID_EMAIL": "বৈধ ইমেল এন্টার করুন",
    "ENTER_VALID_PHONE_NUMBER": "বৈধ ফোন নাম্বার এন্টার করুন",
    "ENTER_10_DIGIT_NUMBER": "10ডিজিট নাম্বার এন্টার করুন",
    "ENTER_VALID_PAN_NUMBER": "বৈধ প্যান নাম্বার এন্টার করুন",
    "ADD_ONE_OR_MORE_CENTER_FOR_CUSTOMER": "একটি বা তারও বেশি সেন্টার যুক্ত করুন গ্রাহকদের জন্য",
    "HUBS_LIST": "হাবের তালিকা",
    "LIST_OF_HUBS": "হাবগুলির তালিকা",
    "NEW_HUB": "নতুন হাব",
    "UNASSIGNED_HUBS": "আরোপিত নয় হাবগুলি",
    "ASSIGNED_HUBS": "আরোপিত হাবগুলি",
    "LIST_OF_UNASSIGNED_HUBS": "নির্দিষ্য় করা হাবগুলি",
    "ASSIGN": "ধার্য করা",
    "SELECT_A_CUSTOMER": "একজন উপভোক্তা নির্বাচন করুন",
    "SELECT_A_CENTER": "একটি স্থল চিহ্নিত করুন",
    "THIS_CUSTOMER_DOES_NOT_HAVE_CENTERS_CONFIGURED": "এই গ্রাহকের কোন স্থল কনফিগার করা নেই",
    "SERIAL_NUMBER": "ক্রমিক সংখ্যা",
    "DEVICE_TYPE": "হাবের প্রকারভেদ",
    "NO_RECORD_FOUND": "কোন সাক্ষ্যপ্রমাণ খুঁজে পাওয়া যায়নি",
    "ACTION": "কাজ",
    "HUB_ASSIGNED_SUCCESSFULLY": "হাব সফলভাবে নিযুক্ত হয়েছে",
    "SELECT_BOTH_CUSTOMER_AND_HUB_THEN_TRY_TO_ASSIGN": "গ্রাহক এবং হাব উভয়কেই মনোনীত করুন এবং তারপর দায়িত্ব অর্পণ করুন",
    "VIEW": "পর্যবেক্ষণ করুন",
    "ADD_HUB": "হাবকে যুক্ত করুন",
    "ADD_HUB_ON_LEFT_AND_ALL_UNASSIGNED_HUBS_WILL_BE_LISTED_ON_RIGHT_SIDE": "বাঁদিকে হাবগুলির নাম পরপর লিখুন এবং যে হাবগুলি এখনো পর্যন্ত নিয়োগকৃত হয়নি তাদের নাম ডানদিকে লিখুন",
    "SELECT_MULTIPLE_HUBS_TO_ASSIGN_THEM_TO_CUSTOMER_AND_CENTER": "একাধিক হাব বাছাই করুন এবং সেগুলি গ্রাহক এবং বিপণনকেন্দ্রগুলির জন্য ধার্য করুন",
    "HUB_SERIAL_NUMBER": "হাবের ক্রমিক নম্বর",
    "SERIAL_NUMBER_ALREADY_EXISTS": "ক্রমিক সংখ্যা ইতিমধ্যেই রয়েছে",
    "HUB_TYPE": "হাবের প্রকারভেদ",
    "ASSIGN_HUBS": "হাবগুলি নির্দিষ্ট করে দিন",
    "ADD_HUBS_ON_LEFT_AND_ASSIGN_AFTERWARDS": "হাবগুলির নাম বাঁদিকে লিখুন এবং তারপর নির্দিষ্ট করে দিন",
    "HUB_SAVED_SUCCESSFULLY": "হাব সফলভাবে সেভ করা হয়েছে",
    "ASSIGNED_DATES": "তারিখগুলো নির্দি্ষ্ট করুন",
    "USER_LIST": "ব্যবহারকারীর তালিকা",
    "LIST_OF_USERS": "ব্যবহারকারীদের তালিকা",
    "SEARCH_BY": "অনুসন্ধান করেছেন যিনি",
    "SORT_BY": "বাছাই করেছেন যিনি",
    "NEW_USER": "নতুন ব্যবহারকারী",
    "ROLE": "ভূমিকা",
    "USER_EDIT": "ব্যবহারকারীর সম্পাদন",
    "DIAGNOSTICS_TEST_IS_NOT_DONE_BY_THE_USER": "ব্যবহারকারী রোগনির্ণয়সংক্রান্ত পরীক্ষা করেন নি",
    "USER": "ব্যবহারকারী",
    "ENTER_USER_DETAILS_AND_SELECT_PROPER_USER_ROLES": "ব্যবহারকারীর সম্পূর্ণ বিবরণ দিন এবং ইউজারের সঠিক ভূমিকা মনোনীত করুন",
    "YOU_CAN_ASSIGN_MULTIPLE_ROLES_FOR_EITHER_HEALTHCUBE_OR_CUSTOMER_USER_TYPE": "আপনি পারেন নানারকম ভূমিকায় অ্যাসাইন করতে কখন‘হেল্থকিউব’ বা‘কাস্টোমার’ব্যবহারকারির টাইপে",
    "FIRST_NAME": "প্রথম নাম",
    "LAST_NAME": "শেষ নাম",
    "GENDER": "লিঙ্গ",
    "MALE": "পুরুষ",
    "OTHER": "অপর",
    "PASSWORD": "Password",
    "CONFIRM_PASSWORD": "Confirm Password",
    "PHONE": "ফোন",
    "QUALIFICATION": "শিক্ষাগতযোগ্যতা",
    "AGE": "বয়স",
    "UPLOAD_PROFILE_PICTURE": "প্রোফাইলের ছবি আপলোড করুন",
    "USER_ROLE": "ব্যবহারকারীর ভূমিকা",
    "HEALTHCUBE": "হেলথকিউব",
    "YOU_CAN_SELECT_MULTIPLE_ROLES": "আপনি নানারকম ভূমিকা মনোনয়ন করতে পারেন",
    "ASSIGN_THE_CENTER_TO_USER_WITHIN": "ব্যবহারকারীর নাগালের মধ্যে কেন্দ্রকে আরোপ করুন",
    "YOU_CAN_SELECT_MULTIPLE_ROLES_THEN_SELECT_CUSTOMER_AND_CENTER_FOR_USER_TO_ASSIGN": "আপনি অনেকগুলি ভূমিকা বেছে নিতে পারেন এবং তারপর গ্রাহক ও কেন্দ্র বেছে নিন ব্যবহারকারীদের আরোপ করার জন্য",
    "PLEASE_SELECT_CUSTOMER_AND_CENTER": "অনুগ্রহ করে গ্রাহক এবং কেন্দ্র বেছে নিন",
    "PLEASE_SELECT_AT_LEAST_ONE_USER_ROLE": "অনুগ্রহ করে ন্যূনতম একজন ব্যবহারকারীর ভূমিকা বেছে নিন",
    "LIST_OF_DIAGNOSTICS": "রোগনির্ণয়ের তালিকা",
    "SORT": "শ্রেণিবিভক্ত করা",
    "TIME": "সময়",
    "DURATION(hh:mm:ss)": "ডিউরেশন(ঘণ্টা:মিনিট:সেকেন্ড)",
    "TYPE_AND_RESULTS": "টাইপ এবং রেজাল্ট",
    "PATIENTID_AND_MRN": "রোগির আইডি এবং এমআরএন",
    "CUSTOMER / CENTERS": "কাস্টমার/সেন্টার",
    "SERIAL_NUMBER_AND_IMEI_AND_OPERATOR": "ক্রমিক নাম্বার,আইএমইআই, অপারেটার",
    "LIST_OF_PATIENTS": "রোগীদের তালিকা",
    "WARNING: PLEASE_SELECT_PATIENT(S)_TO_GENERATE_HEALTH_CARDS": "সতর্ক,করা: হেল্থ কার্ড জেনারেট করে রোগি নির্বাচন করুন",
    "GENERATE_CARDS": "কার্ড ডাউনলোড",
    "MRN": "এমআরএন",
    "CARD_GENERATED": "কার্ড নির্মিত হয়েছে",
    "HEALTH_CARDS": "হেলথ কার্ড",
    "PDFHEAD": "পিডিএফহেড",
    "PATIENTS_STATISTICS_REPORT": "পেসেন্টের পরিসংখ্যান রিপোর্ট",
    "MY_FILTERS": "মাই ফিল্টার",
    "PATIENTS_WEEKLY_REPORT": "রোগীর সাপ্তাহিক রিপোর্ট",
    "BACK": "ব্যাক",
    "CLIENT": "Client",
    "DEVICES": "ডিভাইস",
    "PATIENTS_AND_LOOKUP": "পেসেন্ট এবং লুকআপ",
    "PURCHASE": "ক্রয় করা",
    "DOCUMENTATION": "ডকুমেন্টেসান",
    "SUPPORT": "সমর্থন",
    "NOTE: PACKS_CAN_BE_PACKAGINGS_LIKE_BOXES_OR_BOTTLES": "নোট: প্যাকগুলি প্যাকেজিং করা যেতে পারে বাক্স বা বোতলের মতো",
    "NOTE: UNITS_CAN_BE_STRIPS_CARTRIDGES_ETC": "নোট:ইউনিটগুলিকে স্ট্রিপ,কার্টিজ পরানো যেতে পারে",
    "RE_ORDER_LEVELS(IN_PACKS)": "রি-অর্ডার মাত্রা (প্যাকে)",
    "CONSUMABLES": "ব্যবহারযোগ্য জিনিস",
    "SAMPLE": "নমুনা",
    "IN_PROGRESS": "উন্নতি হচ্ছে",
    "TEST": "টেস্ট",
    "TOTAL_QUANTITY_IN_PACKS": "প্যাকের মোট পরিমাপ",
    "TOTAL_UNITS_IN_EACH_PACK": "প্রতি প্যাকের মোট একক",
    "MANUFACTURER": "উৎপাদক",
    "TOTAL_UNITS": "মোট ইউনিট",
    "LOT": "লট",
    "CALIBRATION_CODE": "ক্যালিব্রেশান কোড",
    "LOT_EXPIRY_DATE": "লটের শেষের দিন",
    "SELECT_DATE": "মনোনীত তারিখ",
    "BLOOD_PRESSURE": "রক্ত চাপ",
    "PULSE_OXIMETER": "প্লাস অক্সিমেন্ট্রি",   
    "TEMPERATURE": "তাপমাত্রা",
    "HEIGHT": "উচ্চতা",
    "BMI": "বিএমআই",
    "ECG": "ইসিজি",
    "WEIGHT": "ওজন",
    "MID_ARM_CIRCUMFERENCE": "মিড আর্ম পরিধি",    
    "GLUCOSE": "গ্লুকোজ",
    "HEMOGLOBIN": "হিমোগ্লোবিন",
    "CHOLESTEROL": "কোলেস্টেরল",
    "URIC_ACID": "ইউরিক অ্যাসিড",
    "URIC ACID": "ইউরিক অ্যাসিড",
    "BLOOD_GROUPING": "রক্তের গ্রুপ নির্ণয়",
    "MALARIA": "ম্যালেরিয়া",
    "DENGUE": "ডেঙ্গি",
    "TYPHOID": "টাইফয়েড",
    "HEP_B": "হেপাটাইটিস বি",
    "HEP B": "হেপাটাইটিস বি",
    "HEP_C": "হেপাটাইটিস সি",
    "HEP C": "হেপাটাইটিস সি",
    "CHIKUNGUNYA": "চিকনগুনিয়া",
    "HIV": "এইচআইভি",
    "SYPHILIS": "সিফিলিস",
    "TROPONIN_1": "ট্রপোনিন 1",
    "TROPONIN 1": "ট্রপোনিন 1",
    "PREGNANCY": "প্রেগনান্সি",
    "URINE_SUGAR": "মুত্রে শর্করা",
    "URINE_PROTEIN": "মুত্রে প্রোটিন",
    "URINE": "মূত্র 2পি",
    "LEUKOCYTES": "লিউকোসাইটস",
    "UROBILINOGEN": "ইউরোবিলিনোজেন",
    "NITRITE": "নাইট্রাইট",
    "KETONE": "কিটোন",
    "PH": "pH",
    "BLOOD": "রক্ত",
    "BILIRUBIN": "বিলিরুবিন",
    "SPECIFIC_GRAVITY": "মাধ্যাকর্ষণ শক্তি",
    "COSUMABLES_LIST": "শব্যবহারযোগ্য করার তালিকা",
    "COSUMABLE": "Consumable",
    "COSUMABLES_MASTER_LIST": "Master Inventory",
    "SHIPMENT_STATUS": "শিপমেন্ট স্ট্যাটাস",
    "SHIP_CONSUMABLES": "শিপ কনজিউমেবল",
    "FILL_CONSUMABLES": "Fill Consumables",
    "NEW_COSUMABLE": "নতুন কনজিউমেবল",
    "PACKS": "প্যাক",
    "QUANTITY_PER_PACK": "Quantity per Pack",
    "EXPIRY_DATE": "এক্সপয়েরি ডেট",
    "SELECT_CONSUMABLES_AND_ASSIGN_TO_CENTER": "নির্বাচন করুন ব্যবহারিক যোগ্যতা এবং কেন্দ্রের দিকে নির্দিষ্ট করুন",
    "DISPATCH": "ডিসপ্যাচ",
    "SELECTED_CONSUMABLES: CHOLESTEROL_STRIPS": "নির্বাচিত ব্যবহারযোগ্য : কোলেস্টেরল স্ট্রিপ",
    "LOT_NO": "লট নাম্বার",
    "LIST_OF_REORDER_REQUESTS": "রেকর্ডারের অনুরোধ",
    "REQUESTED_BY": "যার দ্বারা অনুরোধ",
    "PACKS_TO_SHIP": "শিপ করার জন্য প্যাক",
    "MARK_AS_DISPATCHED": "ডোসপ্যাচ হয়েছে সেগুলিতে ট্যাগ করুন",
    "YOU_HAVE_SUCCESSFULLY_ASSIGNED_CONSUMABLES_WITH_TXN_ID: 83948573. CLICK_BELOW_BUTTON_WHEN_YOU_HAVE_SUCCESSFULLY_SHIPPED_CONSUMABLES_SO_CLIENT_WILL_BE_NOTIFIED_YOU_CAN_GO_TO": "আপনি কী সফলভাবে নির্দিষ্ট করেছেন ব্যবহারযোগ্য জিনিসগুলি txn ID:8394857 দ্বারা। নিচে ক্লিক দিন",
    "SHIPMENT_LOG": "শিপমেন্ট লগ",
    "TO_VIEW_STATUS_OF_SHIPMENT": "শিপমেন্টের স্ট্যাটাস",
    "MARK_AS_SHIPPED": "শিপ হয়েছে জিনিসগুলি ট্যাগ করুন",
    "CONSUMABLES_MAP": "ব্যবহারযোগ্য জিনিসের ম্যাপ",
    "NOT_WORKING": "কাজ করছে না",
    "REORDERS": "রেকর্ডার",
    "SELECT_CONSUMABLES": "নির্বাচিত ব্যবহারযোগ্য",
    "SELECT_REORDER_REQUEST_TO_SEND_CONSUMABLES": "Click on reorder request to allocate consumables",
    "PACKS_ORDERED": "প্যাক অর্ডার করা হয়েছে",
    "POST": "পোস্ট",
    "SELECTED_REORDER_REQUEST: CHOLESTEROL_STRIPS": "নির্বাচিত রিঅর্ডারের অনুরোধ: কোলেস্টেরল স্ট্রিপ",
    "SELECT_CONSUMABLES_TO_DISPATCH": "স্থানান্তর করার জন্য ব্যবহারযোগ্য জিনিস বেছে নিন",
    "CUSTOMER_EDIT": "গ্রাহক এডিট",
    "INVENTORY_LOG": "বিবরণীপত্র লগ",
    "INVENTORY": "Inventory",
    "STRIP": "স্ট্রিপ",
    "STRIPS": "স্ট্রিপ",
    "USED_FOR_BLOOD_GLUCOSE": "রক্ত শর্করার জন্য ব্যবহৃত",
    "BOUGHT": "কেনা হয়েছিল",
    "USED_FOR_HIV": "এইচআইভি-র জন্য ব্যবহৃত",
    "USED_FOR_HEMOGLOBIN": "হিমোগ্লোবিনের জন্য ব্যবহৃত",
    "USED_FOR_BLOOD_PRESSURE": "রক্তচাপের জন্য ব্যবহৃত",
    "CENTER_NAME": "কেন্দ্রের নাম",
    "CENTER_CODE": "কেন্দ্রের কোড",
    "CLEAR_FILTER": "ফিল্টার পরিষ্কার করুন",
    "EDIT": "Edit",
    "DIAGNOSTIC_TEST_IS_NOT_DONE_BASED_ON_FILTERED_DATE": "ফিল্টার করা তারিখের উপর নির্ভর করে রোগনির্ণয়ের পরীক্ষা করা হয়নি",
    "PRIVACY_POLICY": "গোপনীয়তার নীতি",
    "BLOOD_GLUCOSE_NON_FASTING": "রক্ত শর্করা পোস্টপ্র্যান্ডিয়াল",
    "ALL": "সকল",
    "BLOOD_GLUCOSE_FASTING": "রক্ত শর্করার উপোস",
    "HEAMOGLOBIN": "হিমোগ্লোবিন",
    "USER_TEST_MAPPING": "ব্যবহারকারী-পরীক্ষা ম্যাপিং",
    "MULTI_SELECT_OF_USER_WORKS_WHEN_NO_TESTS_ARE_CONFIGURED": "(যখন কোনো পরীক্ষার ব্যবস্থা হয়নি, বহু-নির্বাচিত ব্যবহারকারীরা কাজ করেন)",
    "WARNING: THIS_WILL_OVERWRITE_ALL_EXISTING_TEST_MAPPING_FOR_SELECTED_USER(S)": "সতর্কতা: এটি নির্বাচিত ব্যবহারকারীদের সকল বর্তমান টেস্ট ম্যাপিংকে ওভাররাইট করবে",
    "CHOOSE_THE_USER_AND_THEN_TRY_TO_ASSIGN/UNASSIGN_TEST": "ব্যবহারকারীকে বেছে নিন এবং তারপর পরীক্ষা আরোপিত/অনারোপিত করার জন্য চেষ্টা করুন",
    "NOTE": "দ্রষ্টব্য",
    "TO_MAP_TESTS_TO_USER(S)": "ব্যবহারকারীদের কাছে পরীক্ষা ম্যাপ করার জন্য",
    "ASSIGNING_TESTS(ADD/UPDATE)": "পরীক্ষা আরোপ করা হচ্ছে (যুক্ত করুন/আপডেট)",
    "SELECT_CUSTOMER_AND_CENTER": "গ্রাহক এবং কেন্দ্র বেছে নিন",
    "SELECT_USER(S)": "ব্যবহারকারী বেছে নিন",
    "SELECT_TEST(S)": "পরীক্ষা বেছে নিন",
    "SAVE_MAPPED_TEST_TO_USER": "ব্যবহারকারীর নিকট ম্যাপ করা টেস্ট সেভ করে রাখুন",
    "USER_SELECTION": "ব্যবহারকারী নির্বাচন",
    "FIRST_CHOOSE_A_CUSTOMER/CENTER_AND_SELECT_USER(S)": "প্রথমে একজন গ্রাহক/কেন্দ্র বেছে নিন এবং ব্যবহারকারী বেছে নিন",
    "TO_GO_BACK_TO_MULTIPLE_USER_SELECTION": "বহু ব্যবহারকারী নির্বাচনে ফিরে যেতে",
    "CLICK_HERE": "এখানে ক্লিক করুন",
    "TO_ALLOW_OR_REMOVE_TEST(S)_FOR_A_SINGLE_USER": "একক ব্যবহারকারীর জন্য পরীক্ষার অনুমতি দিতে বা বাতিল করতে",
    "SELECT_TEST(S)_THAT_ARE_TO_BE_ASSIGNED_TO_SELECTED_USER(S)": "সেই সকল পরীক্ষা বেছে নিন যা নির্বাচিত গ্রাহকদের জন্য আরোপ করা হয়েছে",
    "SAVE": "সেভ",
    "UPLOAD_FILE": "ফাইল আপলোড করুন",
    "UPLOAD_FILES": "ফাইলগুলি আপলোড করুন",
    "UPLOADED_FILE_LIST": "ফাইলের তালিকা আপলোড হয়েছে",
    "UPLOAD_FILE_LIST": "ফাইলের তালিকা আপলোড করুন",
    "FILE_TYPE": "ফাইলের প্রকার",
    "FILE_NAME": "ফাইলের নাম",
    "UPLOADED_DATE": "আপলোডের তারিখ",
    "DEVICE_COUNT": "যন্ত্রাংশ গণনা",
    "HUB_LIST": "হাবের তালিকা",
    "SELECT_FACILITY": "সুবিধা বেছে নিন",
    "SELECT_CENTER": "কেন্দ্র বেছে নিন",
    "DRAG_OR_CHOOSE_FILE_HERE": "এখানে ফাইল টেনে আনুন বা বেছে নিন",
    "NOT_FOUND": "খুঁজে পাওয়া যায়নি",
    "DIAGNOSTICS_WEEKLY_REPORT": "চিকিৎসাসংক্রান্ত সাপ্তাহিক রিপোর্ট",
    "ADD_RTD_LOOKUP": "আরটিডি লুকআপ যুক্ত করুন",
    "L1_POS": "এল1 পিওএস",
    "L2_POS": "এল2 পিওএস",
    "L3_POS": "এল3 পিওএস",
    "L1_RANGE": "L1 পাল্লা",
    "L2_RANGE": "L2 পাল্লা",
    "L3_RANGE": "L3 পাল্লা",
    "ASSIGN_RTD_LOOKUP": "আরটিডি লুকআপ আরোপ করুন",
    "SELECT_CUSTOMER": "গ্রাহক বেছে নিন",
    "SELECT_DEVICES": "যন্ত্রাংশ বেছে নিন",
    "DEVICE_ID": "যন্ত্রাংশের আইডি",
    "RTD_LOOKUP": "আরটিডি লুকআপ",
    "CHOOSE_HUBS_AND_CLICK_ON_ASSIGN_HUBS_TO_ASSIGN_SELECTED_HUBS_TO_CLIENT_AND_CENTER": "হাব বেছে নিন এবং হাব আরোপ করার উপর ক্লিক করুন নির্বাচিত হাব আরোপ করার জন্য গ্রাহকদের প্রতি এবং",
    "ADD_CENTER": "কেন্দ্র যুক্ত করুন",
    "ASSIGN_TEST": "Assign test",
    "OPERATIONS": "Operations",
    "OPERATOR": "অপারেটার",
    "DOCTOR": "ডাক্তার",
    "CUSTOMER_ADMIN": "Customer Admin",
    "REORDER": "রিঅর্ডার",
    "CREATED_TIME": "নির্মাণের সময়",
    "ORDERED_BY": "দ্বারা অর্ডারটি হয়েছিল",
    "NO_REORDER_REQUESTS_FOUND": "কোনো রিঅর্ডারের অনুরোধ পাওয়া যায়নি",
    "ORDER_NUMBER": "অর্ডারের নম্বর",
    "ORDER_DATE": "অর্ডারের তারিখ",
    "ORDER_BY": "দ্বারা অর্ডার করা হয়েছে",
    "REQUESTED_CONSUMABLES": "অনুরোধ করা ব্যবহারযোগ্য জিনিস",
    "PACKS_REQUESTED": "প্যাকের অনুরোধ এসেছে",
    "PACKS_FILLED": "প্যাক পূর্ণ হয়েছে",
    "FULFILL": "সম্পূর্ণ",
    "NO_REQUEST_CONSUMABLES": "ব্যবহারযোগ্য জিনিসের কোনো অনুরোধ নেই",
    "REQUIRED_QUANTITY": "প্রয়োজনীয় পরিমাণ",
    "CONSUMABLE": "ব্যবহারযোগ্য জিনিস",
    "AVAILABLE_CONSUMABLES": "List of Available Consumables",
    "AVAILABLE_PACKS": "Available Packs",
    "QUANTITY_PER_PACKAGE": "Quantity per Package",
    "PACKS_TO_ASSIGN": "Packs to Assign",
    "NO_CONSUMABLE_FOUND": "No consumable found",
    "NO_CONSUMABLES_ADDED_CLICK_ON_+_CONSUMABLE_BUTTON_TO_ADD": "কোনো ব্যবহারযোগ্য জিনিস যোগ করা হয়নিতে ক্লিক করুন + ‘ব্যবহারযোগ্য’ বোতামে ক্লিক করুন যুক্ত করার জন্য",
    "ADD_REORDER_REQUEST": "রিঅর্ডারের অনুরোধ যুক্ত করুন",
    "SELECT_CENTER_AND_ADD_CONSUMABLE_DETAILS_TO_CREATE_REORDER_REQUEST": "রিঅর্ডারের অনুরোধ তৈরি করার জন্য কেন্দ্র বেছে নিন এবং ব্যবহারযোগ্য জিনিসের বিবরণ যুক্ত করুন",
    "REQUIRED_CONSUMABLES_LIST": "প্রয়োজনীয় ব্যবহারযোগ্য জিনিসের তালিকা",
    "QUANTITY": "পরিমাণ",
    "REMOVE": "সরিয়ে দিন",
    "CREATE_REQUEST": "অনুরোধ তৈরি করুন",
    "ENTER_CONSUMABLE_DETAILS": "ব্যবহারযোগ্য জিনিসের বিবরণী প্রবেশ করান",
    "TOTAL_QUANTITY_REQUIRED_IN_PACKS": "প্যাকে সমগ্র প্রয়োজনীয় পরিমাণ",
    "ADMIN": "অ্যাডমিন",
    "HEALTHWORKER/OPERATOR": "স্বাস্থ্যকর্মী/নিয়ন্ত্রক",
    "CUSTOMER_ADMIN/MANAGER/TECHNICIAN": "গ্রাহক অ্যাডমিন/প্রবন্ধক/প্রযুক্তিবিদ",
    "PYTHON_FILE_UPLOAD": "পাইথন ফাইল আপলোড",
    "FIRMWARE_FILE_UPLOAD": "ফার্মওয়্যার ফাইল আপলোড করুন",
    "UPLOAD_LOGO": "লোগো আপলোড করুন",
    "File Count Exceed": "File Count Exceed",
    "Max Total File Size Exceed": "Max Total File Size Exceed",
    "Max File Size Exceed": "Max File Size Exceed",
    "Extension Not Matched": "Extension Not Matched",
    "REGENERATE": "Re-Generate",
    "GENERATE": "Generate",
    "CORRECT_THE_FIELD_ERROR_THEN_TRY_TO_SUBMIT": "ক্ষেত্রের ত্রুটি সংশোধন করুন এবং তারপর দাখিল করার প্রচেষ্টা করুন",
    "FACILITY_ADMIN/MANAGER/TECHNICIAN": "ফেসিলিটি অ্যাডমিন/প্রবন্ধক/প্রযুক্তিবিদ",
    "PATHOLOGIST": "প্যাথোলজিস্ট",
    "CLINICAL_USER": "ক্লিনিকাল ইউজার",
    "HC_ADMIN": "এইচসি অ্যাডমিন",
    "HC_OPERATIONS": "এইচসি কার্যাবলি",
    "HC_MANAGER": "এইচসি প্রবন্ধক",
    "TEST_MAPPED_SUCCESSFULLY": "পরীক্ষা সফলভাবে ম্যাপ করা হয়েছে",
    "FOLLOWING_IS_A_COPY_FROM_DEFAULT_RDT_LOOKUP_TABLE_YOU_CAN": "নিম্নলিখিতটি হল ডিফল্ট আরডিটি লুকআপ টেবিলের একটি কপি।আপনি পারেন",
    "SAVE_WHICH_CREATES_A_NEW_CUSTOM_RDT_LOOKUP": "সেভ করতে- যা একটি নতুন কাস্টম আরডিটি লুকআপ তৈরি করে",
    "COPY_ABOVE_TABLE_AND_CREATE_A_CUSTON_RDT_LOOKUP_FOR_INDIVIDUAL_DEVICE_TABLE_IS_EDITABLE": "উপরের টেবিলটি কপি করুন এবং একটি কাস্টম আরডিটি লুকআপ তৈরি করুন প্রত্যেকটি যন্ত্রাংশের জন্য।টেবিল হল",
    "CREATE_CUSTOM_RDT_LOOKUP": "কাস্টম আরডিটি লুকআপ তৈরি করুন",
    "INSTRUCTIONS": "নির্দেশাবলি",
    "EDIT_VALUES": "মান এডিট করুন",
    "ENTER_A_NAME": "একটি নাম প্রদান করুন",
    "L1_POSITION": "L1 অবস্থান",
    "L2_POSITION": "L2 অবস্থান",
    "L3_POSITION": "L3 অবস্থান",
    "CLICK_ON_SUBMIT_BUTTON_WITHOUT_SUBMITTING_CHANGING_THE_PAGE_WILL_CAUSE_OF_LOOSING_SELECTED_DEVICES": "সাবমিট বোতামে ক্লিক করুন।সাবমিট না করে, পাতাটি পরিবর্তন করলে হতে পারে",
    "ASSIGN_RDT_LOOKUP": "আরডিটি লুকআপ আরোপ করুন",
    "INSTRUCTIONS_TO_ASSIGN_RDT_LOOKUP_TO_DEVICES": "যন্ত্রাংশে আরডিটি লুকআপ আরোপ করার জন্য নির্দেশাবলি",
    "SELECT_THE_CUSTOMER_FROM_DROPDOWN_LIST": "ড্রপডাউন তালিকা থেকে গ্রাহককে বেছে নিন",
    "SELECT_THE_CENTER_FROM_DROPDOWN_LIST": "ড্রপডাউন তালিকা থেকে কেন্দ্র বেছে নিন",
    "SELECT_THE_DEVICES_FROM_TABLE": "টেবিল থেকে যন্ত্রাংশগুলি বেছে নিন",
    "SELECT": "বেছে নিন",
    "INFO_LABEL_RDT_EDIT": "1. Make changes in table below, 2. Enter Reason 3. Click \"Save\" ",
    "LOOKUP_FILES": "লুকআপ ফাইল",
    "RDT_LOOKUP_LIST": "লভ্য আরডিটি লুকআপ ফাইল",
    "BTN_RDT_LOOKUP_LIST": "আরডিটি লুকআপ তালিকা",
    "REASON_FOR_UPDATE": "আপডেটের কারণ",
    "INFO_LABEL_RDT_LIST": "এই পাতাটি দর্শায় আরোপিত এবং অনারোপিত আরডিটি লুকআপ ফাইলের তালিকা।যদি কোনো নির্দিষ্ট",
    "NEW_RDT": "নতুন আরডিটি",
    "UNASSIGNED": "অনারোপিত",
    "LAST_UPDATED": "শেষ আপডেট হয়েছিল",
    "VERSION": "ভার্সান",
    "ASSIGNED": "আরোপিত",
    "ADD_RDT": "আরডিটি যুক্ত করুন",
    "CREATE": "Create",
    "LBL_INSTRUCTIONS": "নির্দেশাবলি",
    "LBL_INSTRUCTION_MSG": "গ্রাহক, কেন্দ্র ও হাব বাছাই করুন তারপর অ্যাসাইন ক্লিক করুন।",
    "BTN_SAVE": "সেভ",
    "DEPLOYED": "Deployed",
    "RDT_DEPLOYED": "আরডিটি নিযুক্ত",
    "RDT_DOWNLOAD_TIME": "ডাউনলোড সময়",
    "ALLOCATE": "বণ্টন",
    "REORDER_REQUESTS": "অনুরোধ ফের অর্ডার",
    "LIST_OF_ORDERED_CONSUMABLES": "রেকর্ড করা কনজিউমেবলের তালিকা",
    "ALLOCATE_CONSUMABLES_TO_REORDER_REQUEST": "অনুরোধের ফের অর্ডারে কনজিউমেবল বণ্টন",
    "PACKS_TO_ALLOCATE": "বণ্টনে প্যাক",
    "BY_THIS_WEEK": "এই সপ্তাহের মধ্যে",
    "TEST_TYPE": "পরীক্ষা ধরন",
    "QUANTITY_IN_PACKS": "প্যাকে পরিমাণ",
    "MASTER_INVENTORY": "মাস্টার ইনভেন্টরি",
    "MSG_ASSIGN_SUCCESS": "হাব অ্যাসাইন সফল হয়েছে",
    "HD_MASTER_TEST": "মাস্টার পরীক্ষা",
    "HD_MASTER_DATA": "মাস্টার তালিকা - রোগনির্ণয়ের পরীক্ষা",
    "NAV_LBL_MASTER_TEST_LIST": "মাস্টার টেস্টের তালিকা",
    "NOTE_MASTER_TEST_LIST": "এই পাতাটি রোগনির্ণয় সংক্রান্ত পরীক্ষার মাস্টার ডাটা পরিচালনা করার জন্য।এটি শুধু ফলাফল দেবে.",
    "TEST_NAME": "টেস্টের নাম",
    "TEST_LABEL": "টেস্টের লেবেল",
    "ACTIVE": "সক্রিয়",
    "BLOOD_GLUCOSE": "রক্ত শর্করা",
    "COSUMABLES_CENTER_LIST": "কেন্দ্রীয় বিবরণীপত্রের তালিকা",
    "WARNING_INVALID_FORM": "অনুগ্রহ করে আবশ্যিক চিহ্নিত ক্ষেত্রগুলি পূরণ করুন",
    "LABORATORY/SOCIAL_ENTREPRENEUR": "ল্যাবরেটরি/সামাজিক আন্তেপ্রেনিউয়ার",
    "INDIVIDUAL/HOME": "ব্যক্তিগত/ঘর",
    "APPLY": "প্রয়োগ",
    "BTN_URINE_LOOKUP_LIST": "ইউরিন রেজাল্ট লুকআপ তালিকা",
    "RESULT_TYPE": "রেজাল্ট ধরন",
    "LBL_MIN": "ন্যূনতম",
    "LBL_MAX": "সর্বাধিক",
    "URINE_LOOKUP_LIST": "লভ্য ইউরিন রেজাল্ট লুকআপ ফাইল",
    "NEW_URINE": "নতুন ইউরিন রেজাল্ট লুকআপ",
    "HD_INSTRUCTION_URINE": "নীচেরটি ডিফল্ট ইউরিন রেজাল্ট লুকআপ টেবিল থেকে একটি কপি। আপনি পারেন",
    "SAVE_INSTRUCTION": "রক্ষা - যা তৈরি করে একটি নতুন কাস্টম ইউরিন রেজাল্ট লুকআপ",
    "UPLOAD PYTHON FILE": "পাইথন ফাইল আপলোড করুন",
    "UPLOAD PYTHON FILE FOR HUB": "হাবের জন্য পাইথন ফাইল আপলোড করুন",
    "UNASSIGNED FILE": "অনারোপিত ফাইল",
    "ASSIGNED FILE": "আরোপিত ফাইল",
    "LIST OF UNASSIGNED PYTHON FILE. CLICK ASSIGN TO ASSIGN PYTHON FILE FOR THE PARTICULAR CUSTOMER/CENTER": "অনারোপিত পাইথন ফাইলের তালিকা।নির্দিষ্ট গ্রাহক/কেন্দ্রের জন্য পাইথন ফাইল আরোপ করার জন্য ‘আরোপ’-এ ক্লিক করুন",
    "UPLOAD FILE": "ফাইল আপলোড করুন",
    "FILE NAME": "ফাইলের নাম",
    "UPLOADED DATE": "আপলোডেড তারিখ",
    "CHECKSUM": "চেকসাম",
    "UPLOAD": "আপলোড",
    "CHECKSUM FOR FILE": "ফাইলের জন্য চেকসাম",
    "DRAG OR CHOOSE FILE HERE": "এখানে ফাইল টেনে আনুন বা বেছে নিন",
    "NEXT": "পরবর্তী",
    "Previous": "পূর্ববর্তী",
    "UPLOAD FIRMWARE FILE": "ফার্মওয়্যার ফাইল আপলোড করুন",
    "UPLOAD FIRMWARE FILE FOR HUB": "হাবের জন্য ফার্মওয়্যার ফাইল আপলোড করুন",
    "LIST OF UNASSIGNED FIRMWARE FILE. CLICK ASSIGN TO ASSIGN FIRMWARE FILE FOR THE PARTICULAR CUSTOMER/CENTER": "অনারোপিত ফার্মওয়্যার ফাইলের তালিকা।নির্দিষ্ট গ্রাহক/কেন্দ্রের জন্য ফার্মওয়্যার ফাইল আরোপ করার জন্য ‘আরোপে’ ক্লিক করুন",
    "FILE UPLOADED SUCCESSFULLY ": "ফাইল সফলভাবে আপলোড করা হয়েছে",
    "FILE ALREADY EXISTS SO PLEASE CHECK THE ASSIGNED LIST": "ফাইল ইতিমধ্যে বিরাজমান তাই আরোপিত তালিকা অনুগ্রহ করে চেক করুন",
    "HUBS AFFECTED": "প্রভাবিত হাব",
    "DEPLOYMENT": "নিয়োগকরণ",
    "UNASSIGN": "অনারোপিত",
    "UPLOAD ONLY FIRMWARE FILE": "শুধুমাত্র ফার্মওয়্যার ফাইল আপলোড করুন",
    "UPLOAD ONLY PYTHON FILE": "শুধুমাত্র পাইথন ফাইল আপলোড করুন",
    "CHOOSE ONE FILE THEN TRY TO UPLOAD": "একটি ফাইল বেছে নিন এবং তারপর আপলোড করার চেষ্টা করুন",
    "ENTER CHECKSUM WITH 32 CHARACTER": "32 টি ক্যারেক্টার সহকারে চেকসাম প্রবেশ করান",
    "ENTER VALID 32 CHARACTER": "32 টি বৈধ ক্যারেক্টার প্রবেশ করান",
    "CHANGE_PASSWORD": "পাসওয়ার্ড পরিবর্তন করুন",
    "CURRENT_PASSWORD": "বর্তমান পাসওয়ার্ড",
    "NEW_PASSWORD": "নতুন পাসওয়ার্ড",
    "MY_PROFILE": "আমার প্রোফাইল",
    "UPLOAD FILES": "ফাইলগুলি আপলোড করুন",
    "SAME_PASSWORD": "বর্তমান পাসওয়ার্ড এবং নতুন পাসওয়ার্ড একই",
    "WRONG_PASSWORD": "নতুন পাসওয়ার্ডের সঙ্গে কনফার্ম পাসওয়ার্ড মিলছে না",
    "PASSWORD_UPDATED_SUCCESSFULLY": "পাসওয়ার্ড সফলভাবে হালনাগাদ হয়েছে",
    "BTN_UPDATE_DEFAULT": "ডিফল্ট লুকআপ ফাইল",
    "INFO_LABEL_URINE_LIST": "লভ্য ইউরিন লুকআপ ফাইল প্রদর্শন। একটি \"ডিফল্ট\" ব্যবহৃত হবে হাব দ্বারা যা করে না",
    "URINE_LOOKUP_FILE": "ইউরিন লুকআপ ফাইল",
    "RDT_LOOKUP_FILES": "আরডিটি লুকআপ ফাইল",
    "URINE_LOOKUP_FILES": "ইউরিন লুকআপ ফাইল",
    "RDT_LOOKUP": "আরডিটি লুকআপ",
    "UPDATE_RDT_LOOKUP": "Update RDT Lookup",
    "UPDATE_URINE_LOOKUP": "ইউরিন রেজাল্ট লুকআপ টেবল হালনাগাদ",
    "CREATE_CUSTOM_URINE_LOOKUP": "কাস্টম ইউরিন রেজাল্ট লুকআপ টেবিল তৈরি করুন",
    "WRONG_CIDAAS_PASSWORD": "অবৈধ বর্তমান পাসওয়ার্ড",
    "ACTIVATE/DEACTIVATE": "সক্রিয়/নিষ্ক্রিয়",
    "STATUS": "স্টেটাস",
    "OPERATOR NAME": "অপারেটরের নাম",
    "HUB SERIAL NUMBER": "হাবের ক্রমিক নম্বর",
    "PATIENT ID & MRN": "রোগীর আইডি ও এমআরএন",
    "TEST RESULT": "পরীক্ষার ফলাফল",
    "TEST TIME & DURATION": "পরীক্ষার সময় ও মেয়াদ",
    "CUSTOMER NAME": "গ্রাহকের নাম",
    "CENTER NAME": "কেন্দ্রের নাম",
    "TABLET ID": "ট্যাবলেট আইডি",
    "ANDRIOD VERSION": "অ্যান্ড্রয়েড সংস্করণ",
    "IMEI": "আইএমইআই",
    "HEALTHCUBE APP VERSION": "Healthcube অ্যাপ সংস্করণ",
    "FIRMWARE VERSION": "ফার্মওয়ার ভার্সন",
    "PYTHON VERSION": "পাইথন ভার্সন",
    "N/A": "N/A",
    "CONFIRM": "নিশ্চিত",
    "INACTIVE": "নিষ্ক্রিয়",
    "ARE YOU SURE TO DEACTIVATE": "আপনি ডিঅ্যাক্টিভেট করতে নিশ্চিত",
    "ARE YOU SURE TO ACTIVATE": "আপনি অ্যাক্টিভেট করতে নিশ্চিত",
    "ACTIVATE_HUB": "হাব সক্রিয়",
    "DEACTIVATE_HUB": "হাব নিষ্ক্রিয়",
    "TOTAL_RECORDS": "মোট রেকর্ড",
    "CONF_DEACTIVATION_HD": "ডিঅ্যাক্টিভেশন কনফার্ম",
    "CONF_DEACTIVATION_MSG": "আপনি কি ব্যবহারকারীকে নিষ্ক্রিয় করতে চান",
    "LBL_ACTIVATE": "সক্রিয়",
    "DEACTIVATION_WARNING_MSG": "ডিঅ্যাক্টিভেশনের পর ব্যবহারকারী লগইনে সক্ষম হবে না। ব্যবহারকারী ডেটা নিরাপদে স্টোর থাকবে।",
    "HD_MAPS": "Maps",
    "INFO_PATIENT_MAP": "নীচের ম্যাপ রোগীদের রেজিস্ট্রেশনের জিও-অবস্থান দেখাচ্ছে। একটি পিনে ক্লিক করুন কাউন্ট দেখতে। রোগীর নির্দিষ্ট অবস্থান দেখতে আপনি ম্যাপটি জুম করতে পারেন।",
    "INFO_CENTER_MAP": "সেন্টার পিন-এ বিস্তারিত ক্লিক",
    "INFO_TEST_MAP": "নীচের ম্যাপটি সেন্টারের জিও-অবস্থান এবং টেস্ট কাউন্ট প্রদর্শন করছে। বিস্তারিত দেখতে সেন্টার পিনে ক্লিক করুন।",
    "NAV_PATIENTS_REGISTRATION_MAP": "ম্যাপ",
    "CONSUMABLES_MANAGEMENT": "Consumables Management",
    "ADD_CONSUMABLES_TO_MASTER_INVENTORY": "Add Consumables to Master Inventory",
    "CREATE_REORDER_REQUEST": "Create Reorder Request",
    "REORDER_LIST_ALLOCATION": "Reorder List/Allocation",
    "CENTER_WISE_INVENTORY_LIST": "Center Wise Inventory List",
    "ALLOCATED_PACKS": "Allocated Packs",
    "COMMENT": "Comment",
    "MASTER_INVENTORY_LIST": "Master Inventory List",
    "CONSUMABLES_AND_REORDERS": "Consumables & Reorders",
    "PATIENTS_GEO": "রোগীদের রেজিস্ট্রেশন",
    "CENTERS_GEO": "হাব",
    "TESTS_GEO": "Diagnostic Tests",
    "IPAN_REPORTS": "আইপিএএন রিপোর্ট",
    "ACCESS_DENIED": "অ্যাকসেস প্রত্যাখ্যাত",
    "SELECT_RANGE": "রেঞ্জ বাছাই করুন",
    "VISITORS_LOG": "ভিজিট স্ট্যাটস",
    "NOTE_VISITOR_LOG_LIST": "এই পেজটি পুনরাবৃত্ত ভিজিটের চিহ্নিতকরণ তথ্য অ্যাডমিনিস্টার করতে.",
    "PATIENT_REGISTERED": "রোগী রেজিস্টার্ড",
    "VISIT_COUNT": "পুনরাবৃত্ত ভিজিট",
    "PER_MACHINE_DATA": "মেশিন পিছু তথ্য",
    "NOTE_CU_CE_REG_LIST": "এই পেজটি/গ্রাহক কেন্দ্র ভিত্তিক % মোট রেজিস্ট্রেশন অ্যাডমিনিস্টার করতে",
    "CENTER_WISE_REG": "Customer/Center Wise Registration",
    "Patient_registartion_(Last three month)": "রোগীর নিবন্ধীকরণ (শেষ তিন মাসের)",
    "Diagnostic_done_(Last three month)": "রোগনির্ণয় সম্পূর্ণ (শেষ তিন মাসের)",
    "Blood_Glucose(Non Fasting)": "রক্ত শর্করা (উপোস না করে)",
    "Blood_Pressure": "রক্তচাপ",
    "Cholesterol": "কোলেস্টেরল",
    "Hemoglobin": "হিমোগ্লোবিন",
    "Temperature": "তাপমাত্রা",
    "Malaria": "ম্যালেরিয়া",
    "Hepatitis_B": "হেপাটাইটিস বি",
    "Typhoid": "টাইফয়েড",
    "Total_Records": "মোট রেকর্ড",
    "Items_per_Page": "প্রতি পাতায় আইটেম",
    "Patient_Statistics_(Age)": "রোগী পরিসংখ্যান (বয়স)",
    "Patient_Statistics_(Gender)": "রোগী পরিসংখ্যান (লিঙ্গ)",
    "underscore_ not_allowed": "আন্ডারস্কোর অনুমোদিত নয়",
    "Deployment_View": "ডিপ্লয়মেন্ট ভিউ",
    "Assign": "ধার্য করা",
    "User_Deleted_successfully": "সফলভাবে ইউজার ডিলিট হয়েছে",
    "Patient_Chart": "পেশেন্ট চার্ট",
    "Diagnostic_Done": "রোগ নির্ণয় পরীক্ষা হয়ে গেছে",
    "Hub_Details": "হাবের বিশদ",
    "Test_Mapped": "টেস্ট ম্যাপড",
    "Diagnostics_done_based_on_user": "ব্যবহারকারীর উপর নির্ভর করে চিকিৎসা হয়ে গেছে",
    "Diagnostics_done_for_each_test_from": "প্রতিটি পরীক্ষার জন্য চিকিৎসা হয়েছে",
    "Test_mapped_for": "টেস্ট মানচিত্রের জন্য",
    "Select/Deselect_all_tests_for_user": "ব্যবহারকারির সমস্ত টেস্ট নির্বাচন করুন/ নির্বাচন করবেন না",
    "Pulse_Oximeter_module": "প্লাস অক্সিমিটার মডিউল",
    "Introspection_Data": "ইন্ট্রোস্পেকশন ডেটা",
    "Blood_Pressure_module": "ব্লাড প্রেসার মডিউল",
    "Blood_glucose_module": "ব্লাড গ্লুকোজ মডিউল",
    "Hemoglobin_module": "হিমোগ্লোবিন মডিউল",
    "Cholestrol/Uric_acid_module": "কোলেস্টেরল/ইউরিক অ্যাসিড মডিউল",
    "Urtcamera_module": "আর্টক্যামেরা মডিউল",
    "Enabled": "সস্ক্রিয়",
    "Disabled": "অক্ষম",
    "Deactivate_alert": "আপনি নিষ্ক্রিয় করলে, নিয়ন্ত্রক এই যন্ত্রটির সাথে সংযোগ করতে এবং পরীক্ষা করতে সমর্থ হবেন না।",
    "Activate_alert": "একবার আপনি সক্রিয় করলে, নিয়ন্ত্রক এই যন্ত্রাংশটি খুঁজে বের করতে এবং সংযুক্ত করতে সক্ষম হবেন",
    "Number_of_Center": "কেন্দ্রের সংখ্যা",
    "Customer_Details": "গ্রাহকের বিস্তারিত তথ্য",
    "Blood_Glucose(Fasting)": "ব্লাড গ্লুকোজ (ফাস্টিং)",
    "Click_here_to_map_test_to": "পরীক্ষা ম্যাপ করার জন্য এখানে ক্লিক করুন",
    "ITEMS_PER_PAGE": "প্রতি পাতায় আইটেম",
    "VISIT_TIME": "Visit Time",
    "TESTS": "টেস্টস",
    "IPAN_VISIT_DETAILS": "আইপিএএন ভিজিট রিপোর্ট",
    "PATENTS_VISITS_LOG": "পেশেন্ট ভিজিট লগ",
    "SEARCH_BY_MRN": "এমআরএন দ্বারা সন্ধান",
    "IMAGE_NOT_FOUND":"ইমেজ পাওয়া যায়নি",
    "MASTER TEST LIST" : "মাস্টার টেস্ট তালিকা",
    "IPAN REPORTS" : "আইপিএএন রিপোর্ট",
    "Python Upload" : "পাইথন আপলোড",
    "FIRMWARE Upload": "ফার্মওয়্যার আপলোড",
    "Search by Serial number" : "ক্রমিক নম্বর দ্বারা অনুসন্ধান",    
    "FIRMWARE Version" : "ফার্মওয়ার ভার্সন",
    "Python Version" : "পাইথন ভার্সন",
    "RDT lookup file" : "আরডিটি লুকআপ ফাইল",
    "Urine lookup file" : "ইউরিন লুকআপ ফাইল",
    "PHYSICAL": "শারীরিক", 
    "WHOLE_BLOOD_POCT":"হোল ব্লাড পিওসিটি",
    "WHOLE_BLOOD_RDT": "হোল ব্লাড আরডিটি", 
    "WHOLE_BLOOD": "হোল ব্লাড", 
    "URINE_POCT": "ইউরিন পিওসিটি", 
    "URINE_RDT": "ইউরিন আরডিটি",
    "SKIN_CONFIG":"ত্বক কনফিগারেশন",
    "STATISTICS":"পরিসংখ্যান",
    "REPEAT_VISITS":"পুনরাবৃত্ত ভিজিট",
    "SORTED_BASED_ON_PATIENT":"রোগী রেজিস্ট্রেশনের ভিত্তিতে সংক্ষেপিত",
    "CC_WISE_REG":"গ্রাহক/কেন্দ্র ভিত্তিক রেজিস্ট্রেশন",
    "CC_WISE_DIAGNOSTICS":"গ্রাহক/কেন্দ্র ভিত্তিক ডায়াগনস্টিক",
    "UPLOAD SIGNATURE FOR THE PATHOLOGIST ONLY" : "একমাত্র প্যাথোলজিস্টের জন্য স্বাক্ষর আপলোড করুন",
    "PASSCODE" : "পাসকোড",
    "CONFIRM PASSCODE" : "পাসকোড নিশ্চিত করুন",
    "CONFIRM PASSCODE DOES NOT MATCH" : "কনফার্ম পাসকোড মিলছে না",
    "PROFILE  PICTURE" : " প্রোফাইল পিকচার",
    "DEACTIVE" : "নিষ্ক্রিয়",
    "USER STATUS" : "ব্যবহারকারীর স্টেটাস",
    "TEST_PER_REG":"রেজিস্ট্রেশন পিছু পরীক্ষা",
    "NOTE TO CC DIAGNOSTICS": "এই পেজটি/গ্রাহক কেন্দ্র ভিত্তিক % মোট ডায়াগনস্টিক অ্যাডমিনিস্টার করতে",
    "CONSUMABLE_BASED_TEST":"কনজিউমেবল ভিত্তিক পরীক্ষা",
    "PROBE_BASED_TEST":"প্রমাণ ভিত্তিক পরীক্ষা",    
    "TOTAL DIAGNOSTICS":"Total Diagnostics",
    "PER MACHINE DATA":"মেশিন পিছু তথ্য",
    "PATIENT REGISTERED":"রোগী রেজিস্টার্ড",
    "CENTER ADMIN" : "Center Admin",
    "DIAGNOSTIC DONE BASED ON FILTERED DATE" : "Diagnostic done based on filtered date",
    "PATIENT REGISTARTION BASED ON FILTERED DATE" : "Patient registartion based on filtered date",
    "LOCATION" : "Location",
    "MID ARM CIRCUMFERENCE": "মিড আর্ম সার্কামফেরেন্স",
    "PULSE OXIMETER" : "প্লাস অক্সিমিটার",
    "BLOOD GLUCOSE" : "রক্তে শর্করা",
    "URINE 2P" : "মূত্র 2পি",
    "TYPE VAL": "টাইপ{{value}}",
    "COUNT" : "গণনা",
    "POSTPRANDIAL" : "খাবারের পরে",
    "FASTING" : "উপবাস",
    "RANDOM" : "যথেচ্ছভাবে",
    "Negative" : "নেতিবাচক",
    "Positive" : "ইতিবাচক",
    "Invalid" : "অবৈধ",
    "Protein" : "প্রোটিন",
    "Glucose" : "শর্করা",
    "+" : "+",
    "++" : "++",
    "+++" : "++++",
    "++++" : "++++",
    "DIA" : "ডায়াস্টোলিক",
    "SYS" : "সিস্টোলিক",
    "PULSE_RATE" : "নাড়ির স্পন্দন",
    "mmHg" : "এমএমএইচজিতে",
    "BLOOD PRESSURE" : "রক্ত চাপ",
    "BLOOD GROUPING" : "রক্তের গ্রুপ নির্ণয়",
    "Diagnostic Test" : "ডায়গনিস্টিক পরীক্ষা",
    "bpm" : "বিপিএমে",
    "mmol/L" : "mmol/L",
    "Trace" : "Trace",
    "SYMPTOM BASED TEST" : "উপসর্গ ভিত্তিক পরীক্ষা",
    "SYMPTOM_BASED_TEST" : "উপসর্গ ভিত্তিক পরীক্ষা",
    "Center Details" : "কেন্দ্রের বিবরণ",
    "Deactivate" : "নিষ্ক্রিয়",
    "Success" : "সাফল্য",
    "Week" : "সপ্তাহ",
    "High" : "উচ্চ",
    "Low" : "নিম্ন",
    "ECG module" : "ইসিজি মডিউল"	
}
